%YAML 1.1
%TAG !u! tag:unity3d.com,2011:
--- !u!21 &2100000
Material:
  serializedVersion: 6
  m_ObjectHideFlags: 0
  m_CorrespondingSourceObject: {fileID: 0}
  m_PrefabInstance: {fileID: 0}
  m_PrefabAsset: {fileID: 0}
  m_Name: Sunset1
  m_Shader: {fileID: 4800000, guid: eb3c6fb598ded4c71b8968e1c40a3b4d, type: 3}
  m_ShaderKeywords: 
  m_LightmapFlags: 0
  m_EnableInstancingVariants: 0
  m_DoubleSidedGI: 0
  m_CustomRenderQueue: -1
  stringTagMap: {}
  disabledShaderPasses: []
  m_SavedProperties:
    serializedVersion: 3
    m_TexEnvs: []
    m_Floats:
    - _HorizonLineContribution: 0.84
    - _HorizonLineExponent: 5.24
    - _SkyGradientExponent: 8.32
    - _SunDiscContribution: 1
    - _SunDiscExponent: 20000
    - _SunDiscMultiplier: 5
    - _SunHaloContribution: 0.5
    - _SunHaloExponent: 100
    - _Title: 0
    - __dirty: 0
    m_Colors:
    - _HorizonLineColor: {r: 0.2520915, g: 0.30960163, b: 0.5188679, a: 1}
    - _SkyGradientBottom: {r: 0.1981132, g: 0.1981132, b: 0.1981132, a: 1}
    - _SkyGradientTop: {r: 0, g: 0, b: 0, a: 0}
    - _SunDiscColor: {r: 0.75, g: 0.8625324, b: 1, a: 1}
    - _SunHaloColor: {r: 0.25, g: 0.65717936, b: 1, a: 1}
